Title: Friche la Belle de Mai - Guichet

----

Date: 2023-01-01

----

Tags: Objet

----

Headline: Habillage des guichets mobiles de la Friche la Belle de Mai.

----

Layout: [{"attrs":{"class":"","id":"","toggle":"false","summary":"","open":"false","marginbottom":""},"columns":[{"blocks":[{"content":{"displaycaption":"false","displaycount":"false","toggle":"false","summary":"","open":"false","images":["file://xpUsowpFmAF0jst2","file://z6tnEQEtWGzrM6K0"],"ratio":"","crop":"false","slideshow":"false","autowidth":"false"},"id":"6d554df2-5ea0-4cee-9808-0da11f3547f6","isHidden":false,"type":"gallery"}],"id":"6550639f-1ad3-436e-86e0-0e05a6d736eb","width":"1/1"}],"id":"16a48fe6-9d4d-42cf-a401-60caf92e1e90"}]

----

Metatitle: 

----

Metadescription: 

----

Metarobots: 

----

Metaimage: 

----

Uuid: EIkr0jEOY0qsCTYi