Title: Signalétique

----

Layout: [{"attrs":{"class":"","id":"","toggle":"false","summary":"","open":"false","marginbottom":""},"columns":[{"blocks":[{"content":{"class":"","id":"","level":"h2","text":"Projets de signalétiques"},"id":"adf076e0-2b58-48d9-92a8-7cdd40196c96","isHidden":false,"type":"heading"}],"id":"ca8b3105-dcec-4af1-83ba-69672635f442","width":"1/1"}],"id":"9df51525-cb0f-48c2-b64c-bbdc7f0527ae"},{"attrs":{"class":"","id":"","toggle":"true","summary":"Musée Cantini, exposition temporaire","open":"false","marginbottom":""},"columns":[{"blocks":[{"content":{"displaycaption":"false","displaycount":"false","toggle":"false","summary":"","open":"false","images":["file://q00PpHlAxGWp9AAi","file://EhZpIihH2ZXLeymw","file://JRnSWo1KxsHnQuQR","file://dGpMcbdkJqFw1Fmd","file://opPMdV1ZjkwiQozY","file://XLNInwkbRMZPhbze","file://N7aMdjV8YgXHq8Lz"],"ratio":"","crop":"false","slideshow":"false","autowidth":"false"},"id":"df585fbf-41ca-4963-a0f1-ca2474e3e3ae","isHidden":false,"type":"gallery"}],"id":"14213c02-2b94-4e8f-bb3d-6b5bdbd0bdfb","width":"1/1"}],"id":"16e8196f-4571-42dc-8b4f-18113d0930fc"},{"attrs":{"class":"","id":"","toggle":"true","summary":"Musée Cantini, collection permanente","open":"false","marginbottom":""},"columns":[{"blocks":[{"content":{"displaycaption":"false","displaycount":"false","toggle":"false","summary":"","open":"false","images":["file://dYTK4Mc8ch8slMl0","file://7EWNVXXE1Cw7sxeD","file://GAOBvi6FpgwwJL9q","file://7kkR72ZmJWTuK3hx","file://3iqcVA7PUgMLOALQ"],"ratio":"","crop":"false","slideshow":"false","autowidth":"false"},"id":"f12e4792-46c6-44b3-8514-1b16804a70d3","isHidden":false,"type":"gallery"}],"id":"d9b73d83-5155-4adc-89b0-588c76710d06","width":"1/1"}],"id":"4c1bcf4c-bee1-42ca-98e6-4cc9f2b4c791"},{"attrs":{"class":"","id":"","toggle":"true","summary":"Marc Desgrandchamps au [mac]","open":"false","marginbottom":"sm"},"columns":[{"blocks":[{"content":{"displaycaption":"false","displaycount":"false","toggle":"false","summary":"","open":"false","images":["file://koU2zIUvZoPHow6n","file://7SuU2l7DXp4vXqFK","file://QyvoHwXlxH3RI1M6","file://Lx0wOHeLaQYBosOx","file://yRsT5z0K9dJL6Fg0","file://YejLoNONSyh1qeQo"],"ratio":"","crop":"false","slideshow":"false","autowidth":"false"},"id":"f45823a0-7aae-426b-98ee-522d366d8edf","isHidden":false,"type":"gallery"}],"id":"5a50af65-5f28-42d0-af1a-6f70e6a65a0d","width":"1/1"}],"id":"88738814-9bc5-4b41-89ee-d5a1c9ec5fdc"},{"attrs":{"class":"","id":"","toggle":"false","summary":"","open":"false","marginbottom":""},"columns":[{"blocks":[{"content":{"class":"","id":"","level":"h2","text":"Phase de recherches"},"id":"a9c829b8-411e-4413-9884-a680e19c6b7c","isHidden":false,"type":"heading"}],"id":"e726550d-dd1f-4b5f-9d7c-2b9e857f3c94","width":"1/1"}],"id":"c8edde8f-e61d-4e1d-a7d5-306ecc3773c9"},{"attrs":{"class":"","id":"","toggle":"false","summary":"","open":"false","marginbottom":""},"columns":[{"blocks":[{"content":{"displaycaption":"false","displaycount":"false","toggle":"false","summary":"","open":"false","images":["file://ySpQwySEgfw8LxE1"],"ratio":"","crop":"false","slideshow":"false","autowidth":"false"},"id":"2ede3302-174a-4707-a1c8-2173e196340d","isHidden":false,"type":"gallery"}],"id":"2158d1c8-1f43-4825-ab6a-bbd65319daa3","width":"1/1"}],"id":"105eaa6d-b3ac-47d0-b60c-9a4bbaa4a6ba"}]

----

Lockedpagesenable: false

----

Lockedpagespassword: 

----

Colortext: 

----

Colorbackground: 

----

Metatitle: 

----

Metadescription: 

----

Metarobots: 

----

Metaimage: 

----

Uuid: h8rGJT7V5yoJKIwt