Title: Cantine Frac

----

Date: 2019-05-01

----

Tags: Signalétique, Identité

----

Headline: Système graphique et signalétique pour la cantine du Frac Marseille.

----

Layout: [{"attrs":{"class":"","id":"","toggle":"false","summary":"","open":"false","marginbottom":""},"columns":[{"blocks":[{"content":{"location":"kirby","image":["file://HlVeOkMMKzJXIzEI"],"src":"","alt":"","caption":"","credits":"","link":"","ratio":"","crop":"false"},"id":"f84412f0-3da9-45ab-a49c-4d69cd378f15","isHidden":false,"type":"image"}],"id":"a95269e1-e4ab-497e-9d9e-dde0b8bc2875","width":"1/1"}],"id":"353d5259-4f14-434c-9fc0-d3777bcbf75f"}]

----

Metatitle: 

----

Metadescription: 

----

Metarobots: 

----

Metaimage: 

----

Uuid: QmRrykScxRT1wdq6