Title: Kepa

----

Date: 2019-02-01

----

Tags: Objet

----

Headline: Conception graphique de l'album de Kepa, Tones of Sebastopol.

----

Layout: [{"attrs":{"class":"","id":"","toggle":"false","summary":"","open":"false","marginbottom":""},"columns":[{"blocks":[{"content":{"location":"kirby","image":["file://JSkrsvXPWxlVm7bq"],"src":"","alt":"","caption":"","credits":"","link":"","ratio":"","crop":"false"},"id":"3973d269-637e-4abd-bee1-25e94c3a2cd4","isHidden":false,"type":"image"}],"id":"940f6e0b-d666-42dd-bf11-a0c6c685980c","width":"1/1"}],"id":"b627ae5f-dc47-4730-ab44-46e3105f719e"}]

----

Metatitle: 

----

Metadescription: 

----

Metarobots: 

----

Metaimage: 

----

Uuid: W2OealnPtk5yfJ8W